…
```r
# Filter for rows where the ride length is less than or equal to 0 and then
# sort the results in ascending order.  Includes over 200 rows with negative
# time values, which is likely due to incorrect data entry; it appears that the
# end times and start times may have been entered in reverse.  These records
# will be removed.

cyclistic_2023_v2 %>%
    filter(ride_length <= parse_hms("00:00:00")) %>%
    arrange(ride_length)  # 9,213 rows returned
```

```
# A tibble: 9,213 × 9
   ride_id          bike_type     start_time          end_time           
   <chr>            <chr>         <dttm>              <dttm>             
 1 F584D47AE67FD388 classic_bike  2023-11-05 21:08:00 2023-10-25 07:31:00
 2 AE046C379C20B7CA classic_bike  2023-11-05 20:46:00 2023-10-25 07:31:00
 3 A21D6507DA3C5AD4 classic_bike  2023-11-05 16:41:00 2023-10-25 07:31:00
 4 DEC5EF8DE27398A0 classic_bike  2023-11-05 11:56:00 2023-10-25 07:31:00
 5 7850F6E2343BF766 classic_bike  2023-11-01 16:38:00 2023-10-25 07:31:00
 6 5A5DDAFFF234FB69 classic_bike  2023-11-01 14:07:00 2023-10-25 07:31:00
 7 D8D9D4D695F852EA electric_bike 2023-09-01 19:16:25 2023-09-01 17:54:44
 8 8B6E5BA70093AAB7 electric_bike 2023-06-02 19:29:06 2023-06-02 18:28:51
 9 5C5FCC49C148635F classic_bike  2023-11-05 01:55:00 2023-11-05 01:01:00
10 AF517DF24EAE7E4A electric_bike 2023-11-19 20:10:00 2023-11-19 19:16:00
   starting_station                ending_station         user_type ride_length
   <chr>                           <chr>                  <chr>     <time>     
 1 Sheffield Ave & Waveland Ave    <NA>                   casual    -277:37:00 
 2 Sheridan Rd & Irving Park Rd    <NA>                   member    -277:15:00 
 3 Pine Grove Ave & Irving Park Rd <NA>                   member    -273:10:00 
 4 Pine Grove Ave & Irving Park Rd <NA>                   casual    -268:25:00 
 5 Clark St & Drummond Pl          <NA>                   casual    -177:07:00 
 6 Clark St & Drummond Pl          <NA>                   member    -174:36:00 
 7 Elizabeth St & Randolph St      <NA>                   member    - 01:21:41 
 8 <NA>                            Calumet Ave & 18th St  casual    - 01:00:15 
 9 Halsted St & Wrightwood Ave     Halsted St & Roscoe St member    - 00:54:00 
10 Wabash Ave & 9th St             <NA>                   member    - 00:54:00 
   day_of_week
   <chr>      
 1 Sunday     
 2 Sunday     
 3 Sunday     
 4 Sunday     
 5 Wednesday  
 6 Wednesday  
 7 Friday     
 8 Friday     
 9 Sunday     
10 Sunday     
# ℹ 9,203 more rows
```
…
cyclistic_2023_v2 %>%
    filter(ride_length >= parse_hms("00:00:00") & ride_length <= parse_hms("00:01:00"),
        starting_station != ending_station) %>%
    arrange(ride_length)  # 6,248 rows returned
```

```
# A tibble: 6,248 × 9
   ride_id          bike_type     start_time          end_time           
   <chr>            <chr>         <dttm>              <dttm>             
 1 73D52AF8598BA131 electric_bike 2023-01-07 23:20:00 2023-01-07 23:20:00
 2 11C1E2D3C6D11456 classic_bike  2023-01-10 17:05:00 2023-01-10 17:05:00
 3 91997358346A2648 electric_bike 2023-01-11 08:36:00 2023-01-11 08:36:00
 4 9FA3BBF522C862D9 classic_bike  2023-01-12 22:33:00 2023-01-12 22:33:00
 5 04DA968DB23CF3F7 classic_bike  2023-01-13 19:05:00 2023-01-13 19:05:00
 6 E03E950E13377FAB electric_bike 2023-01-14 23:23:00 2023-01-14 23:23:00
 7 C2C096F619149346 classic_bike  2023-01-15 16:07:00 2023-01-15 16:07:00
 8 C2282B4E7771E769 electric_bike 2023-01-15 18:18:00 2023-01-15 18:18:00
 9 7A71E7E0B69F0ECD classic_bike  2023-01-16 07:51:00 2023-01-16 07:51:00
10 432D37B2215DE4C4 classic_bike  2023-01-16 20:10:00 2023-01-16 20:10:00
   starting_station              ending_station                          
   <chr>                         <chr>                                   
 1 Southport Ave & Roscoe St     N Southport Ave & W Newport Ave         
 2 Franklin St & Adams St (Temp) Franklin St & Monroe St                 
 3 California Ave & Cortez St    Public Rack - California Ave & Cortez St
 4 Clinton St & Jackson Blvd     Canal St & Adams St                     
 5 Wilton Ave & Diversey Pkwy*   Wilton Ave & Diversey Pkwy              
 6 Larrabee St & Kingsbury St    Larrabee St & Oak St                    
 7 Wells St & Hubbard St         Orleans St & Hubbard St                 
 8 Clark St & Elm St             N Clark St & W Elm St                   
 9 Clinton St & Jackson Blvd     Canal St & Adams St                     
10 Canal St & Monroe St          Canal St & Madison St                   
   user_type ride_length day_of_week
   <chr>     <time>      <chr>      
 1 member    00'00"      Saturday   
 2 member    00'00"      Tuesday    
 3 member    00'00"      Wednesday  
 4 member    00'00"      Thursday   
 5 member    00'00"      Friday     
 6 member    00'00"      Saturday   
 7 member    00'00"      Sunday     
 8 member    00'00"      Sunday     
 9 member    00'00"      Monday     
10 member    00'00"      Monday     
# ℹ 6,238 more rows
```
…
cyclistic_2023_v2 %>%
    filter(ride_length >= parse_hms("00:00:00"), starting_station == ending_station) %>%
    arrange(ride_length)  # 276,004 rows returned
```

```
# A tibble: 276,004 × 9
   ride_id          bike_type     start_time          end_time           
   <chr>            <chr>         <dttm>              <dttm>             
 1 C56965D2AE5D234E electric_bike 2023-01-01 00:22:00 2023-01-01 00:22:00
 2 BAC999B11574C4FE classic_bike  2023-01-01 00:31:00 2023-01-01 00:31:00
 3 B429DA4976E3859C classic_bike  2023-01-01 00:47:00 2023-01-01 00:47:00
 4 4259FDA946A26352 classic_bike  2023-01-01 00:56:00 2023-01-01 00:56:00
 5 4F28A430382131D6 classic_bike  2023-01-01 01:21:00 2023-01-01 01:21:00
 6 B4321D71C1489037 electric_bike 2023-01-01 01:55:00 2023-01-01 01:55:00
 7 9AC8CBEFAC3F50EA classic_bike  2023-01-01 02:11:00 2023-01-01 02:11:00
 8 7EE76882219DB0F9 classic_bike  2023-01-01 02:14:00 2023-01-01 02:14:00
 9 C628C24A859126C3 electric_bike 2023-01-01 02:21:00 2023-01-01 02:21:00
10 9B0DD77D39A47F6E electric_bike 2023-01-01 02:30:00 2023-01-01 02:30:00
   starting_station            ending_station              user_type ride_length
   <chr>                       <chr>                       <chr>     <time>     
 1 Winthrop Ave & Lawrence Ave Winthrop Ave & Lawrence Ave member    00'00"     
 2 Streeter Dr & Grand Ave     Streeter Dr & Grand Ave     member    00'00"     
 3 Clark St & Newport St       Clark St & Newport St       member    00'00"     
 4 Stave St & Armitage Ave     Stave St & Armitage Ave     casual    00'00"     
 5 State St & 33rd St          State St & 33rd St          member    00'00"     
 6 Long & Irving Park          Long & Irving Park          casual    00'00"     
 7 Franklin St & Chicago Ave   Franklin St & Chicago Ave   casual    00'00"     
 8 Bosworth Ave & Howard St    Bosworth Ave & Howard St    member    00'00"     
 9 Seeley Ave & Roscoe St      Seeley Ave & Roscoe St      casual    00'00"     
10 Albany Ave & Montrose Ave   Albany Ave & Montrose Ave   member    00'00"     
   day_of_week
   <chr>      
 1 Sunday     
 2 Sunday     
 3 Sunday     
 4 Sunday     
 5 Sunday     
 6 Sunday     
 7 Sunday     
 8 Sunday     
 9 Sunday     
10 Sunday     
# ℹ 275,994 more rows
```

```r
# Filter for rows where ride length greater than or equal to 24 hours and then
# sort the results by ascending order.  Includes trips lasting more than a day;
# some even lasting months.  According to Divvy, bikes not returned within a
# 24-hour period will be deemed lost or stolen until they have been found or
# returned to a docking station.  Rides over 24 hours will be removed.

cyclistic_2023_v2 %>%
    filter(ride_length >= parse_hms("24:00:00")) %>%
    arrange(ride_length)  # 6,439 rows returned
```

```
# A tibble: 6,439 × 9
   ride_id          bike_type    start_time          end_time           
   <chr>            <chr>        <dttm>              <dttm>             
 1 47B35ED4AB9309D6 classic_bike 2023-11-04 04:23:00 2023-11-05 04:23:00
 2 7432DB9AC2EE6C81 classic_bike 2023-11-04 07:37:00 2023-11-05 07:37:00
 3 1DC0B7072A47AA93 classic_bike 2023-11-04 09:20:00 2023-11-05 09:20:00
 4 F0D6F077D7C8BADA classic_bike 2023-11-04 09:54:00 2023-11-05 09:54:00
 5 92D979D502AE0573 classic_bike 2023-11-04 09:56:00 2023-11-05 09:56:00
 6 6B0693D384F86B78 classic_bike 2023-11-04 09:57:00 2023-11-05 09:57:00
 7 4FACA5E6A6D0854B classic_bike 2023-11-04 09:59:00 2023-11-05 09:59:00
 8 2F758C7E396BEE73 classic_bike 2023-11-04 11:51:00 2023-11-05 11:51:00
 9 FD085A4FAC4C3F39 classic_bike 2023-11-04 12:26:00 2023-11-05 12:26:00
10 35BCE327DADC5300 classic_bike 2023-11-04 12:33:00 2023-11-05 12:33:00
   starting_station                        ending_station user_type ride_length
   <chr>                                   <chr>          <chr>     <time>     
 1 Wolcott (Ravenswood) Ave & Montrose Ave <NA>           casual    24:00      
 2 Wabash Ave & Wacker Pl                  <NA>           casual    24:00      
 3 Michigan Ave & 8th St                   <NA>           casual    24:00      
 4 Sheffield Ave & Wellington Ave          <NA>           casual    24:00      
 5 Sheffield Ave & Wellington Ave          <NA>           casual    24:00      
 6 Sheffield Ave & Wellington Ave          <NA>           member    24:00      
 7 Sheffield Ave & Wellington Ave          <NA>           casual    24:00      
 8 Michigan Ave & 8th St                   <NA>           member    24:00      
 9 Greenview Ave & Fullerton Ave           <NA>           member    24:00      
10 Aberdeen St & Monroe St                 <NA>           casual    24:00      
   day_of_week
   <chr>      
 1 Saturday   
 2 Saturday   
 3 Saturday   
 4 Saturday   
 5 Saturday   
 6 Saturday   
 7 Saturday   
 8 Saturday   
 9 Saturday   
10 Saturday   
# ℹ 6,429 more rows
```


```r
# How many starting stations are missing?

cyclistic_2023_v2 %>%
    filter(is.na(starting_station)) %>%
    arrange(bike_type)  # 875,716 rows returned
```

```
# A tibble: 875,716 × 9
   ride_id          bike_type    start_time          end_time           
   <chr>            <chr>        <dttm>              <dttm>             
 1 921487B795A9E163 classic_bike 2023-10-26 12:14:19 2023-10-26 12:36:00
 2 5685FB0E8547AD9E classic_bike 2023-10-27 16:14:14 2023-10-27 16:27:02
 3 A4F8B87B8F8DB9FE classic_bike 2023-10-27 16:23:25 2023-10-27 16:30:47
 4 9D6A7C67EFB688FD classic_bike 2023-10-28 15:29:02 2023-10-28 15:40:51
 5 62F2649E24950EED classic_bike 2023-10-28 22:02:07 2023-10-28 22:16:04
 6 3EF4D90398872AEA classic_bike 2023-10-30 11:23:26 2023-10-30 11:39:30
 7 39198CFA2C5DC07F classic_bike 2023-10-30 16:35:23 2023-10-30 16:55:57
 8 5B5D9FB427DACE1E classic_bike 2023-10-30 17:50:23 2023-10-30 18:06:32
 9 41107B0A9FBDDAD2 classic_bike 2023-10-31 08:48:35 2023-10-31 09:04:41
10 AB271CA8E90C67C3 classic_bike 2023-10-31 10:16:08 2023-10-31 10:33:54
   starting_station ending_station             user_type ride_length day_of_week
   <chr>            <chr>                      <chr>     <time>      <chr>      
 1 <NA>             <NA>                       casual    21'41"      Thursday   
 2 <NA>             Halsted St & Clybourn Ave  member    12'48"      Friday     
 3 <NA>             Leavitt St & Armitage Ave  casual    07'22"      Friday     
 4 <NA>             Morgan St & Lake St*       member    11'49"      Saturday   
 5 <NA>             LaSalle St & Washington St casual    13'57"      Saturday   
 6 <NA>             <NA>                       casual    16'04"      Monday     
 7 <NA>             <NA>                       member    20'34"      Monday     
 8 <NA>             <NA>                       member    16'09"      Monday     
 9 <NA>             <NA>                       member    16'06"      Tuesday    
10 <NA>             <NA>                       casual    17'46"      Tuesday    
# ℹ 875,706 more rows
```

```r
# How many ending stations are missing?

cyclistic_2023_v2 %>%
    filter(is.na(ending_station)) %>%
    arrange(bike_type)  # 929,202 rows returned
```

```
# A tibble: 929,202 × 9
   ride_id          bike_type    start_time          end_time           
   <chr>            <chr>        <dttm>              <dttm>             
 1 7B43D6AB35E4E86D classic_bike 2023-01-01 01:06:00 2023-01-02 02:06:00
 2 BCFD032B3A6B0297 classic_bike 2023-01-01 01:13:00 2023-01-02 02:12:00
 3 97CA6CFF379DBCBD classic_bike 2023-01-01 01:26:00 2023-01-02 02:26:00
 4 1FB8FE3600279846 classic_bike 2023-01-01 04:45:00 2023-01-02 05:45:00
 5 F2185E23A7BB45C6 classic_bike 2023-01-01 15:02:00 2023-01-02 16:01:00
 6 F238900D8A2B80A5 classic_bike 2023-01-02 10:57:00 2023-01-03 11:56:00
 7 D49128E772E11CBE classic_bike 2023-01-02 11:03:00 2023-01-03 12:03:00
 8 7AB8D6F4E33866B0 classic_bike 2023-01-02 13:27:00 2023-01-03 14:27:00
 9 0A9054244220600A classic_bike 2023-01-02 15:14:00 2023-01-03 16:14:00
10 F2743A167F49378F classic_bike 2023-01-02 15:58:00 2023-01-03 16:57:00
   starting_station                ending_station user_type ride_length
   <chr>                           <chr>          <chr>     <time>     
 1 Greenview Ave & Fullerton Ave   <NA>           casual    25:00      
 2 Clark St & Grace St             <NA>           casual    24:59      
 3 Wilton Ave & Belmont Ave        <NA>           casual    25:00      
 4 State St & Van Buren St         <NA>           casual    25:00      
 5 State St & Kinzie St            <NA>           casual    24:59      
 6 Fairbanks Ct & Grand Ave        <NA>           member    24:59      
 7 Blackstone Ave & Hyde Park Blvd <NA>           casual    25:00      
 8 Clark St & Jarvis Ave           <NA>           casual    25:00      
 9 Clark St & Elm St               <NA>           casual    25:00      
10 Benson Ave & Church St          <NA>           casual    24:59      
   day_of_week
   <chr>      
 1 Sunday     
 2 Sunday     
 3 Sunday     
 4 Sunday     
 5 Sunday     
 6 Monday     
 7 Monday     
 8 Monday     
 9 Monday     
10 Monday     
# ℹ 929,192 more rows
```

```r
# Classic bikes should start from and end at a docking station.

cyclistic_2023_v2 %>%
    filter(is.na(starting_station), bike_type == "classic_bike") %>%
    arrange(ride_length)  # 34 rows returned
```

```
# A tibble: 34 × 9
   ride_id          bike_type    start_time          end_time           
   <chr>            <chr>        <dttm>              <dttm>             
 1 A4F8B87B8F8DB9FE classic_bike 2023-10-27 16:23:25 2023-10-27 16:30:47
 2 66661D737DFC2B72 classic_bike 2023-11-05 12:06:00 2023-11-05 12:15:00
 3 938CB5BE37B0378E classic_bike 2023-11-05 09:00:00 2023-11-05 09:10:00
 4 9D6A7C67EFB688FD classic_bike 2023-10-28 15:29:02 2023-10-28 15:40:51
 5 5685FB0E8547AD9E classic_bike 2023-10-27 16:14:14 2023-10-27 16:27:02
 6 62F2649E24950EED classic_bike 2023-10-28 22:02:07 2023-10-28 22:16:04
 7 5C416968B1AF58C6 classic_bike 2023-11-01 09:24:00 2023-11-01 09:40:00
 8 2FE722850C2C22E6 classic_bike 2023-11-01 12:57:00 2023-11-01 13:13:00
 9 33860DD1A1DDFA32 classic_bike 2023-11-01 15:19:00 2023-11-01 15:35:00
10 AEF9B8894E7870A7 classic_bike 2023-11-01 18:11:00 2023-11-01 18:27:00
   starting_station ending_station                user_type ride_length
   <chr>            <chr>                         <chr>     <time>     
 1 <NA>             Leavitt St & Armitage Ave     casual    07'22"     
 2 <NA>             Lakeview Ave & Fullerton Pkwy casual    09'00"     
 3 <NA>             Peoria St & Jackson Blvd      member    10'00"     
 4 <NA>             Morgan St & Lake St*          member    11'49"     
 5 <NA>             Halsted St & Clybourn Ave     member    12'48"     
 6 <NA>             LaSalle St & Washington St    casual    13'57"     
 7 <NA>             <NA>                          member    16'00"     
 8 <NA>             <NA>                          member    16'00"     
 9 <NA>             <NA>                          casual    16'00"     
10 <NA>             <NA>                          member    16'00"     
   day_of_week
   <chr>      
 1 Friday     
 2 Sunday     
 3 Sunday     
 4 Saturday   
 5 Friday     
 6 Saturday   
 7 Wednesday  
 8 Wednesday  
 9 Wednesday  
10 Wednesday  
# ℹ 24 more rows
```

```r
cyclistic_2023_v2 %>%
    filter(is.na(ending_station), bike_type == "classic_bike") %>%
    arrange(ride_length)  # 5,116 rows returned
```

```
# A tibble: 5,116 × 9
   ride_id          bike_type    start_time          end_time           
   <chr>            <chr>        <dttm>              <dttm>             
 1 F584D47AE67FD388 classic_bike 2023-11-05 21:08:00 2023-10-25 07:31:00
 2 AE046C379C20B7CA classic_bike 2023-11-05 20:46:00 2023-10-25 07:31:00
 3 A21D6507DA3C5AD4 classic_bike 2023-11-05 16:41:00 2023-10-25 07:31:00
 4 DEC5EF8DE27398A0 classic_bike 2023-11-05 11:56:00 2023-10-25 07:31:00
 5 7850F6E2343BF766 classic_bike 2023-11-01 16:38:00 2023-10-25 07:31:00
 6 5A5DDAFFF234FB69 classic_bike 2023-11-01 14:07:00 2023-10-25 07:31:00
 7 04B3D218D5E7C4FD classic_bike 2023-11-02 09:30:00 2023-11-02 09:33:00
 8 62BCD926C0CAA606 classic_bike 2023-11-02 16:22:00 2023-11-02 16:28:00
 9 65F798170A8B1102 classic_bike 2023-10-28 13:37:11 2023-10-28 13:43:19
10 BE0F9DC7D68F8563 classic_bike 2023-11-06 15:28:00 2023-11-06 15:36:00
   starting_station                ending_station user_type ride_length
   <chr>                           <chr>          <chr>     <time>     
 1 Sheffield Ave & Waveland Ave    <NA>           casual    -277:37:00 
 2 Sheridan Rd & Irving Park Rd    <NA>           member    -277:15:00 
 3 Pine Grove Ave & Irving Park Rd <NA>           member    -273:10:00 
 4 Pine Grove Ave & Irving Park Rd <NA>           casual    -268:25:00 
 5 Clark St & Drummond Pl          <NA>           casual    -177:07:00 
 6 Clark St & Drummond Pl          <NA>           member    -174:36:00 
 7 Woodlawn Ave & 55th St          <NA>           member      00:03:00 
 8 Halsted St & Roscoe St          <NA>           member      00:06:00 
 9 Wilton Ave & Belmont Ave        <NA>           casual      00:06:08 
10 Desplaines St & Kinzie St       <NA>           member      00:08:00 
   day_of_week
   <chr>      
 1 Sunday     
 2 Sunday     
 3 Sunday     
 4 Sunday     
 5 Wednesday  
 6 Wednesday  
 7 Thursday   
 8 Thursday   
 9 Saturday   
10 Monday     
# ℹ 5,106 more rows
```
…
